{
  "msg": "返回成功",
  "errno": "200",
  "data": {
    "currentPage": 1,
    "pageSize": 10,
    "totalPage": 2,
    "totalCount": 13,
    "list": [{
      "id": 147,
      "goodsName": "wregergvsr",
      "goodsSubtitle": "",
      "goodsDesc": "",
      "marketPrice": "",
      "goodsPrice": 1239.00,
      "goodsNo": "1746e98f8c314fbeb6bc11bcd7b5ed26",
      "goodsLabel": "",
      "goodsImg": "http://47.107.167.164/img/ls/1001/merchant/100120190225212631.jpg",
      "goodsMobileImg": "",
      "goodsSort": "",
      "goodsSize": "",
      "goodsColor": "",
      "goodsSalePrice": "",
      "barCode": "",
      "skuCode": "",
      "goodsWarningVal": "",
      "goodsStock": 1234,
      "goodsWeight": "",
      "applicablePeople": "",
      "mainMaterial": "",
      "listingYear": "",
      "goodsUnit": "",
      "goodsObject": "",
      "goodsNum": "",
      "goodsWarning": "",
      "delStatus": "",
      "status": 0,
      "brandId": "",
      "styleId": "",
      "typeId": "",
      "merchantId": "",
      "salesNum": "",
      "commentId": "",
      "createTime": "",
      "updateTime": "",
      "creator": "",
      "goodsNavigationId": "",
      "updator": "",
      "merchantParamDetailIds": "",
      "merchantGoodsTypePropertyList": [{
        "id": 312,
        "goodsId": 147,
        "propertyId": "",
        "specificationsId": "637_638",
        "goodsSalePrice": 123.00,
        "goodsNo": "1746e98f8c314fbeb6bc11bcd7b5ed26",
        "goodsStock": 123,
        "stockWarning": "1",
        "skuCode": "55504e4a5141450eb2a80a569bed9800",
        "status": 0,
        "creator": 1,
        "updator": "",
        "nameValue": ""
      }, {
        "id": 313,
        "goodsId": 147,
        "propertyId": "",
        "specificationsId": "637_639",
        "goodsSalePrice": 123.00,
        "goodsNo": "1746e98f8c314fbeb6bc11bcd7b5ed26",
        "goodsStock": 110,
        "stockWarning": "1",
        "skuCode": "ad9858056ba84a0eb2ba0576cb9982ba",
        "status": 0,
        "creator": 1,
        "updator": "",
        "nameValue": ""
      }],
      "merchantGoodsParams": "",
      "merchantGoodsProperties": "",
      "merchantSpecifications": "",
      "brandName": "品牌dior",
      "styleName": "",
      "typeName": "",
      "childId": "",
      "childName": "",
      "buyNum": 0,
      "map": "",
      "navName": "",
      "navId": "",
      "navChildName": "",
      "navChildId": ""
    }, {
      "id": 125,
      "goodsName": "12",
      "goodsSubtitle": "",
      "goodsDesc": "",
      "marketPrice": "",
      "goodsPrice": 12.00,
      "goodsNo": "4b4567fa8d584877ad5572f38469480c",
      "goodsLabel": "",
      "goodsImg": "https://img.xinzhibang168.com/FmR88ILyONmakl5P1khxHlEt3qxc.jpg",
      "goodsMobileImg": "",
      "goodsSort": "",
      "goodsSize": "",
      "goodsColor": "",
      "goodsSalePrice": "",
      "barCode": "",
      "skuCode": "",
      "goodsWarningVal": "",
      "goodsStock": 50,
      "goodsWeight": "",
      "applicablePeople": "",
      "mainMaterial": "",
      "listingYear": "",
      "goodsUnit": "",
      "goodsObject": "",
      "goodsNum": "",
      "goodsWarning": "",
      "delStatus": "",
      "status": 0,
      "brandId": "",
      "styleId": "",
      "typeId": "",
      "merchantId": "",
      "salesNum": "",
      "commentId": "",
      "createTime": "",
      "updateTime": "",
      "creator": "",
      "goodsNavigationId": "",
      "updator": "",
      "merchantParamDetailIds": "",
      "merchantGoodsTypePropertyList": [{
        "id": 286,
        "goodsId": 125,
        "propertyId": "",
        "specificationsId": "603_604",
        "goodsSalePrice": 2.00,
        "goodsNo": "4b4567fa8d584877ad5572f38469480c",
        "goodsStock": 12,
        "stockWarning": "1",
        "skuCode": "d7c5249e77a64a50a4a28e303ce6dd35",
        "status": 0,
        "creator": 1,
        "updator": "",
        "nameValue": ""
      }],
      "merchantGoodsParams": "",
      "merchantGoodsProperties": "",
      "merchantSpecifications": "",
      "brandName": "品牌dior",
      "styleName": "",
      "typeName": "",
      "childId": "",
      "childName": "",
      "buyNum": 0,
      "map": "",
      "navName": "",
      "navId": "",
      "navChildName": "",
      "navChildId": ""
    }, {
      "id": 146,
      "goodsName": "dsfhgadfgb",
      "goodsSubtitle": "",
      "goodsDesc": "",
      "marketPrice": "",
      "goodsPrice": 2270.00,
      "goodsNo": "da6760861ea64ac2b842ea8621cb41ba",
      "goodsLabel": "",
      "goodsImg": "http://47.107.167.164/img/ls/1001/merchant/100120190225212436.jpg",
      "goodsMobileImg": "",
      "goodsSort": "",
      "goodsSize": "",
      "goodsColor": "",
      "goodsSalePrice": "",
      "barCode": "",
      "skuCode": "",
      "goodsWarningVal": "",
      "goodsStock": 1234,
      "goodsWeight": "",
      "applicablePeople": "",
      "mainMaterial": "",
      "listingYear": "",
      "goodsUnit": "",
      "goodsObject": "",
      "goodsNum": "",
      "goodsWarning": "",
      "delStatus": "",
      "status": 1,
      "brandId": "",
      "styleId": "",
      "typeId": "",
      "merchantId": "",
      "salesNum": "",
      "commentId": "",
      "createTime": "",
      "updateTime": "",
      "creator": "",
      "goodsNavigationId": "",
      "updator": "",
      "merchantParamDetailIds": "",
      "merchantGoodsTypePropertyList": [{
        "id": 311,
        "goodsId": 146,
        "propertyId": "",
        "specificationsId": "635_636",
        "goodsSalePrice": 2435.00,
        "goodsNo": "da6760861ea64ac2b842ea8621cb41ba",
        "goodsStock": 12,
        "stockWarning": "1",
        "skuCode": "8a15605eaa364ceb89c83a6d8ed0fa2a",
        "status": 0,
        "creator": 1,
        "updator": "",
        "nameValue": ""
      }],
      "merchantGoodsParams": "",
      "merchantGoodsProperties": "",
      "merchantSpecifications": "",
      "brandName": "品牌dior",
      "styleName": "",
      "typeName": "",
      "childId": "",
      "childName": "",
      "buyNum": 0,
      "map": "",
      "navName": "",
      "navId": "",
      "navChildName": "",
      "navChildId": ""
    }, {
      "id": 131,
      "goodsName": "海尔电冰箱",
      "goodsSubtitle": "",
      "goodsDesc": "",
      "marketPrice": "",
      "goodsPrice": 321.00,
      "goodsNo": "321",
      "goodsLabel": "",
      "goodsImg": "https://img.xinzhibang168.com/FmR88ILyONmakl5P1khxHlEt3qxc.jpg",
      "goodsMobileImg": "",
      "goodsSort": "",
      "goodsSize": "",
      "goodsColor": "",
      "goodsSalePrice": "",
      "barCode": "",
      "skuCode": "",
      "goodsWarningVal": "",
      "goodsStock": 321,
      "goodsWeight": "",
      "applicablePeople": "",
      "mainMaterial": "",
      "listingYear": "",
      "goodsUnit": "",
      "goodsObject": "",
      "goodsNum": "",
      "goodsWarning": "",
      "delStatus": "",
      "status": 1,
      "brandId": "",
      "styleId": "",
      "typeId": "",
      "merchantId": "",
      "salesNum": "",
      "commentId": "",
      "createTime": "",
      "updateTime": "",
      "creator": "",
      "goodsNavigationId": "",
      "updator": "",
      "merchantParamDetailIds": "",
      "merchantGoodsTypePropertyList": [{
        "id": 299,
        "goodsId": 131,
        "propertyId": "",
        "specificationsId": "615",
        "goodsSalePrice": 456.00,
        "goodsNo": "321",
        "goodsStock": 16,
        "stockWarning": "1",
        "skuCode": "8116741db44c4368a8ce16216b35156f",
        "status": 0,
        "creator": 1,
        "updator": "",
        "nameValue": ""
      }],
      "merchantGoodsParams": "",
      "merchantGoodsProperties": "",
      "merchantSpecifications": "",
      "brandName": "baidu",
      "styleName": "",
      "typeName": "",
      "childId": "",
      "childName": "",
      "buyNum": 0,
      "map": "",
      "navName": "",
      "navId": "",
      "navChildName": "",
      "navChildId": ""
    }, {
      "id": 145,
      "goodsName": "dsagsagr",
      "goodsSubtitle": "",
      "goodsDesc": "",
      "marketPrice": "",
      "goodsPrice": 1234.00,
      "goodsNo": "75d8f9afe3db438fbda064e09b3bd1ef",
      "goodsLabel": "",
      "goodsImg": "http://47.107.167.164/img/ls/1001/merchant/100120190225211906.jpg",
      "goodsMobileImg": "",
      "goodsSort": "",
      "goodsSize": "",
      "goodsColor": "",
      "goodsSalePrice": "",
      "barCode": "",
      "skuCode": "",
      "goodsWarningVal": "",
      "goodsStock": 123,
      "goodsWeight": "",
      "applicablePeople": "",
      "mainMaterial": "",
      "listingYear": "",
      "goodsUnit": "",
      "goodsObject": "",
      "goodsNum": "",
      "goodsWarning": "",
      "delStatus": "",
      "status": 1,
      "brandId": "",
      "styleId": "",
      "typeId": "",
      "merchantId": "",
      "salesNum": "",
      "commentId": "",
      "createTime": "",
      "updateTime": "",
      "creator": "",
      "goodsNavigationId": "",
      "updator": "",
      "merchantParamDetailIds": "",
      "merchantGoodsTypePropertyList": [{
        "id": 310,
        "goodsId": 145,
        "propertyId": "",
        "specificationsId": "630_631_632_633_634",
        "goodsSalePrice": 124.00,
        "goodsNo": "75d8f9afe3db438fbda064e09b3bd1ef",
        "goodsStock": 12,
        "stockWarning": "1",
        "skuCode": "54358aa240454664a633b226db7ce03e",
        "status": 0,
        "creator": 1,
        "updator": "",
        "nameValue": ""
      }],
      "merchantGoodsParams": "",
      "merchantGoodsProperties": "",
      "merchantSpecifications": "",
      "brandName": "品牌dior",
      "styleName": "",
      "typeName": "",
      "childId": "",
      "childName": "",
      "buyNum": 0,
      "map": "",
      "navName": "",
      "navId": "",
      "navChildName": "",
      "navChildId": ""
    }, {
      "id": 149,
      "goodsName": "美宝莲唇釉",
      "goodsSubtitle": "",
      "goodsDesc": "",
      "marketPrice": "",
      "goodsPrice": 18.00,
      "goodsNo": "4b166d8b92064da0ac66acf9ac8a8f99",
      "goodsLabel": "",
      "goodsImg": "http://47.107.167.164/img/ls/1001/merchant/100120190409121133.jpg",
      "goodsMobileImg": "",
      "goodsSort": "",
      "goodsSize": "",
      "goodsColor": "",
      "goodsSalePrice": "",
      "barCode": "",
      "skuCode": "",
      "goodsWarningVal": "",
      "goodsStock": 1000,
      "goodsWeight": "",
      "applicablePeople": "",
      "mainMaterial": "",
      "listingYear": "",
      "goodsUnit": "",
      "goodsObject": "",
      "goodsNum": "",
      "goodsWarning": "",
      "delStatus": "",
      "status": 0,
      "brandId": "",
      "styleId": "",
      "typeId": "",
      "merchantId": "",
      "salesNum": "",
      "commentId": "",
      "createTime": "",
      "updateTime": "",
      "creator": "",
      "goodsNavigationId": "",
      "updator": "",
      "merchantParamDetailIds": "",
      "merchantGoodsTypePropertyList": [{
        "id": 314,
        "goodsId": 149,
        "propertyId": "",
        "specificationsId": "640_641_642_644_645",
        "goodsSalePrice": 2000.00,
        "goodsNo": "4b166d8b92064da0ac66acf9ac8a8f99",
        "goodsStock": 1,
        "stockWarning": "1",
        "skuCode": "b9c34facd0a44b91b2bd5bec70ea4120",
        "status": 0,
        "creator": 1,
        "updator": "",
        "nameValue": ""
      }, {
        "id": 315,
        "goodsId": 149,
        "propertyId": "",
        "specificationsId": "640_641_643_644_645",
        "goodsSalePrice": 1.00,
        "goodsNo": "4b166d8b92064da0ac66acf9ac8a8f99",
        "goodsStock": 1,
        "stockWarning": "1",
        "skuCode": "403142fd16ab4b47986139b1405934bc",
        "status": 0,
        "creator": 1,
        "updator": "",
        "nameValue": ""
      }],
      "merchantGoodsParams": "",
      "merchantGoodsProperties": "",
      "merchantSpecifications": "",
      "brandName": "品牌dior",
      "styleName": "",
      "typeName": "",
      "childId": "",
      "childName": "",
      "buyNum": 0,
      "map": "",
      "navName": "",
      "navId": "",
      "navChildName": "",
      "navChildId": ""
    }, {
      "id": 132,
      "goodsName": "迷你口红",
      "goodsSubtitle": "",
      "goodsDesc": "",
      "marketPrice": "",
      "goodsPrice": 1123.00,
      "goodsNo": "15ff3d39eba645dbadef303c858bb767",
      "goodsLabel": "",
      "goodsImg": "http://47.107.167.164/img/ls/1001/merchant/100120190409121403.jpg,http://47.107.167.164/img/ls/1001/merchant/100120190409121357.jpg,http://47.107.167.164/img/ls/1001/merchant/100120190409121407.jpg",
      "goodsMobileImg": "",
      "goodsSort": "",
      "goodsSize": "",
      "goodsColor": "",
      "goodsSalePrice": "",
      "barCode": "",
      "skuCode": "",
      "goodsWarningVal": "",
      "goodsStock": 123,
      "goodsWeight": "",
      "applicablePeople": "",
      "mainMaterial": "",
      "listingYear": "",
      "goodsUnit": "",
      "goodsObject": "",
      "goodsNum": "",
      "goodsWarning": "",
      "delStatus": "",
      "status": 1,
      "brandId": "",
      "styleId": "",
      "typeId": "",
      "merchantId": "",
      "salesNum": "",
      "commentId": "",
      "createTime": "",
      "updateTime": "",
      "creator": "",
      "goodsNavigationId": "",
      "updator": "",
      "merchantParamDetailIds": "",
      "merchantGoodsTypePropertyList": [{
        "id": 300,
        "goodsId": 132,
        "propertyId": "",
        "specificationsId": "616",
        "goodsSalePrice": 123333.00,
        "goodsNo": "15ff3d39eba645dbadef303c858bb767",
        "goodsStock": 23,
        "stockWarning": "1",
        "skuCode": "5d4b5566d2624f2490a4d4cb8f692812",
        "status": 0,
        "creator": 1,
        "updator": "",
        "nameValue": ""
      }],
      "merchantGoodsParams": "",
      "merchantGoodsProperties": "",
      "merchantSpecifications": "",
      "brandName": "品牌dior",
      "styleName": "",
      "typeName": "",
      "childId": "",
      "childName": "",
      "buyNum": 0,
      "map": "",
      "navName": "",
      "navId": "",
      "navChildName": "",
      "navChildId": ""
    }, {
      "id": 135,
      "goodsName": "女学生防水哑光口红",
      "goodsSubtitle": "",
      "goodsDesc": "",
      "marketPrice": "",
      "goodsPrice": 333.00,
      "goodsNo": "7d855227c3644cbe9d79de3dc1c03ee4",
      "goodsLabel": "",
      "goodsImg": "http://47.107.167.164/img/ls/1001/merchant/100120190409120806.jpg",
      "goodsMobileImg": "",
      "goodsSort": "",
      "goodsSize": "",
      "goodsColor": "",
      "goodsSalePrice": "",
      "barCode": "",
      "skuCode": "",
      "goodsWarningVal": "",
      "goodsStock": 221,
      "goodsWeight": "",
      "applicablePeople": "",
      "mainMaterial": "",
      "listingYear": "",
      "goodsUnit": "",
      "goodsObject": "",
      "goodsNum": "",
      "goodsWarning": "",
      "delStatus": "",
      "status": 1,
      "brandId": "",
      "styleId": "",
      "typeId": "",
      "merchantId": "",
      "salesNum": "",
      "commentId": "",
      "createTime": "",
      "updateTime": "",
      "creator": "",
      "goodsNavigationId": "",
      "updator": "",
      "merchantParamDetailIds": "",
      "merchantGoodsTypePropertyList": [{
        "id": 304,
        "goodsId": 135,
        "propertyId": "",
        "specificationsId": "621_625",
        "goodsSalePrice": 3.00,
        "goodsNo": "7d855227c3644cbe9d79de3dc1c03ee4",
        "goodsStock": 2,
        "stockWarning": "2",
        "skuCode": "7be56b1d340b435b86343a46215c3f2b",
        "status": 0,
        "creator": 1,
        "updator": "",
        "nameValue": ""
      }, {
        "id": 305,
        "goodsId": 135,
        "propertyId": "",
        "specificationsId": "622_625",
        "goodsSalePrice": 2.00,
        "goodsNo": "7d855227c3644cbe9d79de3dc1c03ee4",
        "goodsStock": 2,
        "stockWarning": "2",
        "skuCode": "c2e6be13dc7a45958a5883df8486a0c3",
        "status": 0,
        "creator": 1,
        "updator": "",
        "nameValue": ""
      }, {
        "id": 306,
        "goodsId": 135,
        "propertyId": "",
        "specificationsId": "623_625",
        "goodsSalePrice": 2.00,
        "goodsNo": "7d855227c3644cbe9d79de3dc1c03ee4",
        "goodsStock": 2,
        "stockWarning": "2",
        "skuCode": "8d3fbb6664954e3e8ba6def2bb0421fc",
        "status": 0,
        "creator": 1,
        "updator": "",
        "nameValue": ""
      }, {
        "id": 307,
        "goodsId": 135,
        "propertyId": "",
        "specificationsId": "624_625",
        "goodsSalePrice": 22.00,
        "goodsNo": "7d855227c3644cbe9d79de3dc1c03ee4",
        "goodsStock": 25,
        "stockWarning": "22",
        "skuCode": "e698c3deedd14d2e8006344957e39054",
        "status": 0,
        "creator": 1,
        "updator": "",
        "nameValue": ""
      }],
      "merchantGoodsParams": "",
      "merchantGoodsProperties": "",
      "merchantSpecifications": "",
      "brandName": "品牌dior",
      "styleName": "",
      "typeName": "",
      "childId": "",
      "childName": "",
      "buyNum": 0,
      "map": "",
      "navName": "",
      "navId": "",
      "navChildName": "",
      "navChildId": ""
    }, {
      "id": 108,
      "goodsName": "牛肉包",
      "goodsSubtitle": "",
      "goodsDesc": "",
      "marketPrice": "",
      "goodsPrice": 1.00,
      "goodsNo": "dbd90394da7a47c2a0ab0b4d51cf34ca",
      "goodsLabel": "",
      "goodsImg": "https://img.xinzhibang168.com/FmR88ILyONmakl5P1khxHlEt3qxc.jpg",
      "goodsMobileImg": "",
      "goodsSort": "",
      "goodsSize": "",
      "goodsColor": "",
      "goodsSalePrice": "",
      "barCode": "",
      "skuCode": "",
      "goodsWarningVal": "",
      "goodsStock": 100,
      "goodsWeight": "",
      "applicablePeople": "",
      "mainMaterial": "",
      "listingYear": "",
      "goodsUnit": "",
      "goodsObject": "",
      "goodsNum": "",
      "goodsWarning": "",
      "delStatus": "",
      "status": 1,
      "brandId": "",
      "styleId": "",
      "typeId": "",
      "merchantId": "",
      "salesNum": "",
      "commentId": "",
      "createTime": "",
      "updateTime": "",
      "creator": "",
      "goodsNavigationId": "",
      "updator": "",
      "merchantParamDetailIds": "",
      "merchantGoodsTypePropertyList": [{
        "id": 280,
        "goodsId": 108,
        "propertyId": "",
        "specificationsId": "594",
        "goodsSalePrice": 123.00,
        "goodsNo": "dbd90394da7a47c2a0ab0b4d51cf34ca",
        "goodsStock": 12,
        "stockWarning": "1",
        "skuCode": "c16c145eb68946e7a06067dcb000277a",
        "status": 0,
        "creator": 1,
        "updator": "",
        "nameValue": ""
      }],
      "merchantGoodsParams": "",
      "merchantGoodsProperties": "",
      "merchantSpecifications": "",
      "brandName": "品牌dior",
      "styleName": "",
      "typeName": "",
      "childId": "",
      "childName": "",
      "buyNum": 7,
      "map": "",
      "navName": "",
      "navId": "",
      "navChildName": "",
      "navChildId": ""
    }, {
      "id": 130,
      "goodsName": "包子",
      "goodsSubtitle": "",
      "goodsDesc": "",
      "marketPrice": "",
      "goodsPrice": 111.00,
      "goodsNo": "111",
      "goodsLabel": "",
      "goodsImg": "http://47.107.167.164/img/ls/1001/merchant/100120190117224836.jpg",
      "goodsMobileImg": "",
      "goodsSort": "",
      "goodsSize": "",
      "goodsColor": "",
      "goodsSalePrice": "",
      "barCode": "",
      "skuCode": "",
      "goodsWarningVal": "",
      "goodsStock": 50,
      "goodsWeight": "",
      "applicablePeople": "",
      "mainMaterial": "",
      "listingYear": "",
      "goodsUnit": "",
      "goodsObject": "",
      "goodsNum": "",
      "goodsWarning": "",
      "delStatus": "",
      "status": 1,
      "brandId": "",
      "styleId": "",
      "typeId": "",
      "merchantId": "",
      "salesNum": "",
      "commentId": "",
      "createTime": "",
      "updateTime": "",
      "creator": "",
      "goodsNavigationId": "",
      "updator": "",
      "merchantParamDetailIds": "",
      "merchantGoodsTypePropertyList": [{
        "id": 298,
        "goodsId": 130,
        "propertyId": "",
        "specificationsId": "614",
        "goodsSalePrice": 2.00,
        "goodsNo": "111",
        "goodsStock": 4,
        "stockWarning": "1",
        "skuCode": "c92e94c68e124abcbe83556ab5b5fc16",
        "status": 0,
        "creator": 1,
        "updator": "",
        "nameValue": ""
      }],
      "merchantGoodsParams": "",
      "merchantGoodsProperties": "",
      "merchantSpecifications": "",
      "brandName": "品牌dior",
      "styleName": "",
      "typeName": "",
      "childId": "",
      "childName": "",
      "buyNum": 0,
      "map": "",
      "navName": "",
      "navId": "",
      "navChildName": "",
      "navChildId": ""
    }],
    "imgUrl": ""
  }
}