{
  "msg": "返回成功",
  "errno": "200",
  "data": {
    "currentPage": 1,
    "pageSize": 10,
    "totalPage": 62,
    "totalCount": 619,
    "list": [{
      "id": 47,
      "goodsSkuId": 276,
      "merchantId": "1001",
      "operateType": 101,
      "orderCode": "15451011029041",
      "type": 1,
      "changeBefore": 3,
      "changeNumber": 1,
      "changeAfter": 4,
      "operateId": 0,
      "createTime": "2018-12-18 10:53:37",
      "goodsName": "心上人cxb",
      "goodsImg": "https://testimage.diandianyuyue.com/ls/1001/merchant/100120181203154828.jpg",
      "goodsNo": "3c4156c3e46d4025bc4d88b7d017fb51",
      "property": "冰箱彩电",
      "operateTypeName": "订单关闭",
      "typeName": "入库",
      "operateUserName": "",
      "brandName": "",
      "goodsId": 106
    }, {
      "id": 48,
      "goodsSkuId": 277,
      "merchantId": "1001",
      "operateType": 101,
      "orderCode": "15451196434051",
      "type": 1,
      "changeBefore": 2,
      "changeNumber": 1,
      "changeAfter": 3,
      "operateId": 0,
      "createTime": "2018-12-18 16:00:27",
      "goodsName": "心上人cxb",
      "goodsImg": "https://testimage.diandianyuyue.com/ls/1001/merchant/100120181203154828.jpg",
      "goodsNo": "3c4156c3e46d4025bc4d88b7d017fb51",
      "property": "冰箱彩电",
      "operateTypeName": "订单关闭",
      "typeName": "入库",
      "operateUserName": "",
      "brandName": "",
      "goodsId": 106
    }, {
      "id": 49,
      "goodsSkuId": 277,
      "merchantId": "1001",
      "operateType": 101,
      "orderCode": "15451196434051",
      "type": 1,
      "changeBefore": 2,
      "changeNumber": 1,
      "changeAfter": 3,
      "operateId": 0,
      "createTime": "2018-12-18 16:00:27",
      "goodsName": "心上人cxb",
      "goodsImg": "https://testimage.diandianyuyue.com/ls/1001/merchant/100120181203154828.jpg",
      "goodsNo": "3c4156c3e46d4025bc4d88b7d017fb51",
      "property": "冰箱彩电",
      "operateTypeName": "订单关闭",
      "typeName": "入库",
      "operateUserName": "",
      "brandName": "",
      "goodsId": 106
    }, {
      "id": 50,
      "goodsSkuId": 277,
      "merchantId": "1001",
      "operateType": 101,
      "orderCode": "15451196434051",
      "type": 1,
      "changeBefore": 2,
      "changeNumber": 1,
      "changeAfter": 3,
      "operateId": 0,
      "createTime": "2018-12-18 16:00:28",
      "goodsName": "心上人cxb",
      "goodsImg": "https://testimage.diandianyuyue.com/ls/1001/merchant/100120181203154828.jpg",
      "goodsNo": "3c4156c3e46d4025bc4d88b7d017fb51",
      "property": "冰箱彩电",
      "operateTypeName": "订单关闭",
      "typeName": "入库",
      "operateUserName": "",
      "brandName": "",
      "goodsId": 106
    }, {
      "id": 51,
      "goodsSkuId": 277,
      "merchantId": "1001",
      "operateType": 101,
      "orderCode": "15451196434051",
      "type": 1,
      "changeBefore": 2,
      "changeNumber": 1,
      "changeAfter": 3,
      "operateId": 0,
      "createTime": "2018-12-18 16:00:28",
      "goodsName": "心上人cxb",
      "goodsImg": "https://testimage.diandianyuyue.com/ls/1001/merchant/100120181203154828.jpg",
      "goodsNo": "3c4156c3e46d4025bc4d88b7d017fb51",
      "property": "冰箱彩电",
      "operateTypeName": "订单关闭",
      "typeName": "入库",
      "operateUserName": "",
      "brandName": "",
      "goodsId": 106
    }, {
      "id": 52,
      "goodsSkuId": 277,
      "merchantId": "1001",
      "operateType": 101,
      "orderCode": "15451196434051",
      "type": 1,
      "changeBefore": 2,
      "changeNumber": 1,
      "changeAfter": 3,
      "operateId": 0,
      "createTime": "2018-12-18 16:00:28",
      "goodsName": "心上人cxb",
      "goodsImg": "https://testimage.diandianyuyue.com/ls/1001/merchant/100120181203154828.jpg",
      "goodsNo": "3c4156c3e46d4025bc4d88b7d017fb51",
      "property": "冰箱彩电",
      "operateTypeName": "订单关闭",
      "typeName": "入库",
      "operateUserName": "",
      "brandName": "",
      "goodsId": 106
    }, {
      "id": 53,
      "goodsSkuId": 277,
      "merchantId": "1001",
      "operateType": 101,
      "orderCode": "15451196434051",
      "type": 1,
      "changeBefore": 2,
      "changeNumber": 1,
      "changeAfter": 3,
      "operateId": 0,
      "createTime": "2018-12-18 16:00:28",
      "goodsName": "心上人cxb",
      "goodsImg": "https://testimage.diandianyuyue.com/ls/1001/merchant/100120181203154828.jpg",
      "goodsNo": "3c4156c3e46d4025bc4d88b7d017fb51",
      "property": "冰箱彩电",
      "operateTypeName": "订单关闭",
      "typeName": "入库",
      "operateUserName": "",
      "brandName": "",
      "goodsId": 106
    }, {
      "id": 54,
      "goodsSkuId": 278,
      "merchantId": "1001",
      "operateType": 101,
      "orderCode": "15451201556221",
      "type": 1,
      "changeBefore": 3,
      "changeNumber": 1,
      "changeAfter": 4,
      "operateId": 0,
      "createTime": "2018-12-18 16:22:07",
      "goodsName": "心上人cxb",
      "goodsImg": "https://testimage.diandianyuyue.com/ls/1001/merchant/100120181203154828.jpg",
      "goodsNo": "3c4156c3e46d4025bc4d88b7d017fb51",
      "property": "冰箱彩电",
      "operateTypeName": "订单关闭",
      "typeName": "入库",
      "operateUserName": "",
      "brandName": "",
      "goodsId": 107
    }, {
      "id": 57,
      "goodsSkuId": 280,
      "merchantId": "1001",
      "operateType": 101,
      "orderCode": "1545738458885189331",
      "type": 1,
      "changeBefore": 12,
      "changeNumber": 1,
      "changeAfter": 13,
      "operateId": 0,
      "createTime": "2018-12-25 19:47:56",
      "goodsName": "心上人cxb",
      "goodsImg": "https://testimage.diandianyuyue.com/ls/1001/merchant/100120181203154828.jpg",
      "goodsNo": "3c4156c3e46d4025bc4d88b7d017fb51",
      "property": "冰箱彩电",
      "operateTypeName": "订单关闭",
      "typeName": "入库",
      "operateUserName": "",
      "brandName": "",
      "goodsId": 108
    }, {
      "id": 58,
      "goodsSkuId": 279,
      "merchantId": "1001",
      "operateType": 101,
      "orderCode": "15452709933121",
      "type": 1,
      "changeBefore": 3,
      "changeNumber": 1,
      "changeAfter": 4,
      "operateId": 0,
      "createTime": "2018-12-25 19:47:56",
      "goodsName": "心上人cxb",
      "goodsImg": "https://testimage.diandianyuyue.com/ls/1001/merchant/100120181203154828.jpg",
      "goodsNo": "3c4156c3e46d4025bc4d88b7d017fb51",
      "property": "冰箱彩电",
      "operateTypeName": "订单关闭",
      "typeName": "入库",
      "operateUserName": "",
      "brandName": "",
      "goodsId": 107
    }],
    "imgUrl": "http://47.107.167.164/img"
  }
}