{
  "msg": "返回成功",
  "errno": "200",
  "data": {
    "totalPage": 524,
    "pageSize": 5,
    "currentPage": 1,
    "totalCount": 2620,
    "list": [{
      "id": 1,
      "userId": 0,
      "eventType": 1507376,
      "success": 1,
      "description": "",
      "operateTime": "2018-11-01 19:47:43",
      "ip": "0.0.0.0",
      "channel": 0,
      "pack": "Chrome/63.0.3239.26"
    }, {
      "id": 3,
      "userId": 0,
      "eventType": 1507376,
      "success": 1,
      "description": "{\"code\":0,\"data\":{\"ip\":\"14.153.187.160\",\"country\":\"中国\",\"area\":\"\",\"region\":\"广东\",\"city\":\"深圳\",\"county\":\"XX\",\"isp\":\"电信\",\"country_id\":\"CN\",\"area_id\":\"\",\"region_id\":\"440000\",\"city_id\":\"440300\",\"county_id\":\"xx\",\"isp_id\":\"100017\"}}",
      "operateTime": "2018-11-01 20:00:48",
      "ip": "0.0.0.0",
      "channel": 0,
      "pack": "Chrome/70.0.3538.77"
    }, {
      "id": 4,
      "userId": 0,
      "eventType": 1507376,
      "success": 1,
      "description": "{\"code\":0,\"data\":{\"ip\":\"0.0.0.0\",\"country\":\"XX\",\"area\":\"\",\"region\":\"XX\",\"city\":\"内网IP\",\"county\":\"内网IP\",\"isp\":\"内网IP\",\"country_id\":\"xx\",\"area_id\":\"\",\"region_id\":\"xx\",\"city_id\":\"local\",\"county_id\":\"local\",\"isp_id\":\"local\"}}",
      "operateTime": "2018-11-01 20:44:47",
      "ip": "0.0.0.0",
      "channel": 0,
      "pack": "Chrome/63.0.3239.26"
    }, {
      "id": 5,
      "userId": 0,
      "eventType": 1507376,
      "success": 1,
      "description": "",
      "operateTime": "2018-11-02 09:49:28",
      "ip": "0.0.0.0",
      "channel": 0,
      "pack": "Chrome/70.0.3538.77"
    }, {
      "id": 6,
      "userId": 0,
      "eventType": 1507376,
      "success": 1,
      "description": "{\"code\":0,\"data\":{\"ip\":\"0.0.0.0\",\"country\":\"XX\",\"area\":\"\",\"region\":\"XX\",\"city\":\"内网IP\",\"county\":\"内网IP\",\"isp\":\"内网IP\",\"country_id\":\"xx\",\"area_id\":\"\",\"region_id\":\"xx\",\"city_id\":\"local\",\"county_id\":\"local\",\"isp_id\":\"local\"}}",
      "operateTime": "2018-11-02 09:49:44",
      "ip": "0.0.0.0",
      "channel": 0,
      "pack": "Chrome/63.0.3239.26"
    }]
  }
}